Final Project
…
The data set indicates that the following integer values (0,1, 2, 3) correspond to different levels of education (High School, Bachelor’s, Master’s, Phd) respectively. For the readers sake, I will renaming these variables.

2. Exploratory data analysis

# A tibble: 4 × 8
  Race    count Senior Mean_Salary Median_Salary SD_Salary Min_Salary Max_Salary
  <chr>   <int>  <int>       <dbl>         <dbl>     <dbl>      <dbl>      <dbl>
1 Africa…   352     49     112355.        110000    50700.      25000     220000
2 White     347     46     115764.        115000    53377.      25000     240000
3 Asian     335     37     113299.        114776    49944.        500     219000
4 Hispan…   322     44     110410.        105000    53649.        350     225000

The purpose of generating this summary table was to find the total count of observations and Seniors within each race. This was a test for my own sake to make sure we weren’t removing too many factors and didn’t have a significant amount, or distribution, remaining.

# A tibble: 72 × 3
   `Job Title`               count Mean_Salary
   <chr>                     <int>       <dbl>
 1 Software Engineer           167     119698.
 2 Data Scientist               99     158424.
 3 Data Analyst                 81     122321.
 4 Software Engineer Manager    73     170070.
 5 Product Manager              72     143208.
 6 Marketing Manager            64     108750 
 7 Project Engineer             59     161640.
 8 Full Stack Engineer          57     127459.
 9 Back end Developer           56     102787.
10 Front end Developer          56      83388.
# ℹ 62 more rows
…
                         2.5 %     97.5 %
(Intercept)          110295.70 121231.883
RaceAfrican American -11114.05   4297.030
RaceAsian            -10266.81   5337.170
RaceHispanic         -13235.37   2528.064

What is important to note in these findings is that the 95% confidence interval for African American [-11114.05, 4297.030]. This means we are 95% confident that the true population value of the coefficient for African American race falls within this range. Since the interval includes 0, it suggests that the effect of being African American on salary is not statistically significant at the 5% significance level. Because the confidence intervals for Asians and Hispanics also include 0, it suggests that these variable may not be a significant predictor of the outcome variable, Salary. Statistical significance is determined by whether the interval excludes 0 or not. If the interval includes 0, it indicates that the estimate is not significantly different from 0.

3.4 Testing Multiple Linear Regressions

model1 <- lm(Salary ~ (Gender + `Years of Experience` + I(`Years of Experience`^2) + Senior + `Education Level`)*Race, data = salary_us)

get_regression_table(model1)

# A tibble: 32 × 7
   term                   estimate std_error statistic p_value lower_ci upper_ci
   <chr>                     <dbl>     <dbl>     <dbl>   <dbl>    <dbl>    <dbl>
 1 intercept                41575.    3896.     10.7     0       33931.   49218.
 2 Gender: Male              3339.    3002.      1.11    0.266   -2550.    9228.
 3 `Years of Experience`    11548.     822.     14.1     0        9936.   13160.
 4 I(`Years of Experienc…    -236.      29.6    -7.96    0        -294.    -178.
 5 Senior                  -14544.    4380.     -3.32    0.001  -23137.   -5951.
 6 `Education Level`High…  -24273.    6095.     -3.98    0      -36230.  -12317.
 7 `Education Level`Mast…    7747.    3786.      2.05    0.041     320.   15173.
 8 `Education Level`Phd     16231.    4678.      3.47    0.001    7054.   25407.
 9 Race: African American   -1721.    5595.     -0.308   0.758  -12696.    9255.
10 Race: Asian              -5672.    5804.     -0.977   0.329  -17058.    5713.
# ℹ 22 more rows
…
