HW 08 - Ch 5
…
First, describe our variables of interest as we did above. I am going to give you less guidance here. I want you to explore:

The raw data

Summaries of the variables

Plot the variables

twitch_data |>
  group_by(language) |>
  summarize(N = n()) |>
  arrange(desc(N))

# A tibble: 21 × 2
   language       N
   <chr>      <int>
 1 English      485
 2 Korean        77
 3 Russian       74
 4 Spanish       68
 5 French        66
 6 Portuguese    61
 7 German        49
 8 Chinese       30
 9 Turkish       22
10 Italian       17
# ℹ 11 more rows
…
Question 5

Now, we are ready to fit the model. Fit a linear regression where your outcome variable is average_viewers and your independent variable is language. Let me teach you another trick here. When your categorical variable has many categories it makes sense to establish your reference category outside of the model. This ensures that, when you are reading your coefficients, you know what you are comparing them to. Let’s set English as our reference category.

twitch_data <- twitch_data %>% 
  mutate(language = as.factor(language), 
         language = relevel(language, ref = "English")) #make the intercept "english"

Now, fit your model. Your coefficients will tell you how many more (or fewer) average viewers are related to streaming in languages different than English. Interpret the results. How is my prediction doing?

language_model <- lm(average_viewers ~ language, data = twitch_data)

broom :: tidy(language_model)

# A tibble: 21 × 5
   term              estimate std.error statistic  p.value
   <chr>                <dbl>     <dbl>     <dbl>    <dbl>
 1 (Intercept)          5113.      385.    13.3   3.47e-37
 2 languageArabic        569.     3808.     0.150 8.81e- 1
 3 languageChinese     -1688.     1594.    -1.06  2.90e- 1
 4 languageCzech       -3285.     3480.    -0.944 3.45e- 1
 5 languageFinnish     -4086.     8480.    -0.482 6.30e- 1
 6 languageFrench      -1606.     1111.    -1.45  1.49e- 1
 7 languageGerman       -835.     1270.    -0.657 5.11e- 1
 8 languageGreek       -3152.     8480.    -0.372 7.10e- 1
 9 languageHungarian   -2972.     6002.    -0.495 6.21e- 1
10 languageItalian     -2907.     2090.    -1.39  1.65e- 1
# ℹ 11 more rows
…
