HW 04
…
Question 2

Reshape it so that every row tells you the salary associated with a position each year. Your new dataset should have three columns: year, position, salary.

tidy_nfl_salaries <- nfl_salaries |>
  pivot_longer(cols = c(2:11),
               names_to = "Position",
               values_to = "Salary")
tidy_nfl_salaries

# A tibble: 8,000 × 3
    year Position            Salary
   <dbl> <chr>                <dbl>
 1  2011 Cornerback        11265916
 2  2011 Defensive Lineman 17818000
 3  2011 Linebacker        16420000
 4  2011 Offensive Lineman 15960000
 5  2011 Quarterback       17228125
 6  2011 Running Back      12955000
 7  2011 Safety             8871428
 8  2011 Special Teamer     4300000
 9  2011 Tight End          8734375
10  2011 Wide Receiver     16250000
# ℹ 7,990 more rows
…
Question 4

Let’s calculate the average salary for each position, each year. Create a new dataset that contains the average salary for each position each year. To do this, you will need the group_by and summarize combo.

salary_position <- tidy_nfl_salaries |> 
  group_by(Position, year) |> 
  summarize(avg_salary = mean(Salary, na.rm = TRUE)) |>
  ungroup()

`summarise()` has grouped output by 'Position'. You can override using the
`.groups` argument.

salary_position

# A tibble: 80 × 3
   Position           year avg_salary
   <chr>             <dbl>      <dbl>
 1 Cornerback         2011   3037766.
 2 Cornerback         2012   3132916.
 3 Cornerback         2013   2901798.
 4 Cornerback         2014   3038278.
 5 Cornerback         2015   3758543.
 6 Cornerback         2016   4201470.
 7 Cornerback         2017   4125692.
 8 Cornerback         2018   4659704.
 9 Defensive Lineman  2011   4306995.
10 Defensive Lineman  2012   4693730.
# ℹ 70 more rows
…
